{
    "categories": {
        "href": "https://api.spotify.com/v1/browse/categories?offset=0&limit=20&locale=en-GB%2Cen-US%3Bq%3D0.9%2Cen%3Bq%3D0.8%2Cpt%3Bq%3D0.7",
        "items": [
            {
                "href": "https://api.spotify.com/v1/browse/categories/0JQ5DAt0tbjZptfcdMSKl3",
                "id": "0JQ5DAt0tbjZptfcdMSKl3",
                "icons": [
                    {
                        "height": 274,
                        "url": "https://t.scdn.co/images/728ed47fc1674feb95f7ac20236eb6d7.jpeg",
                        "width": 274
                    }
                ],
                "name": "Made For You"
            },
            {
                "href": "https://api.spotify.com/v1/browse/categories/0JQ5DAqbMKFz6FAsUtgAab",
                "id": "0JQ5DAqbMKFz6FAsUtgAab",
                "icons": [
                    {
                        "height": 274,
                        "url": "https://t.scdn.co/images/728ed47fc1674feb95f7ac20236eb6d7.jpeg",
                        "width": 274
                    }
                ],
                "name": "New Releases"
            },
            {
                "href": "https://api.spotify.com/v1/browse/categories/0JQ5DAqbMKFPm1Mb6n2zCR",
                "id": "0JQ5DAqbMKFPm1Mb6n2zCR",
                "icons": [
                    {
                        "height": 274,
                        "url": "https://t.scdn.co/images/728ed47fc1674feb95f7ac20236eb6d7.jpeg",
                        "width": 274
                    }
                ],
                "name": "Spotify CLASSICS"
            },
            {
                "href": "https://api.spotify.com/v1/browse/categories/0JQ5DAqbMKFQ00XGBls6ym",
                "id": "0JQ5DAqbMKFQ00XGBls6ym",
                "icons": [
                    {
                        "height": 274,
                        "url": "https://t.scdn.co/images/728ed47fc1674feb95f7ac20236eb6d7.jpeg",
                        "width": 274
                    }
                ],
                "name": "Hip-Hop"
            },
            {
                "href": "https://api.spotify.com/v1/browse/categories/0JQ5DAqbMKFEC4WFtoNRpw",
                "id": "0JQ5DAqbMKFEC4WFtoNRpw",
                "icons": [
                    {
                        "height": 274,
                        "url": "https://t.scdn.co/media/derived/pop-274x274_447148649685019f5e2a03a39e78ba52_0_0_274_274.jpg",
                        "width": 274
                    }
                ],
                "name": "Pop"
            },
            {
                "href": "https://api.spotify.com/v1/browse/categories/0JQ5DAqbMKFKLfwjuJMoNC",
                "id": "0JQ5DAqbMKFKLfwjuJMoNC",
                "icons": [
                    {
                        "height": 274,
                        "url": "https://t.scdn.co/images/a2e0ebe2ebed4566ba1d8236b869241f.jpeg",
                        "width": 274
                    }
                ],
                "name": "Country"
            },
            {
                "href": "https://api.spotify.com/v1/browse/categories/0JQ5DAudkNjCgYMM0TZXDw",
                "id": "0JQ5DAudkNjCgYMM0TZXDw",
                "icons": [
                    {
                        "height": 274,
                        "url": "https://charts-images.scdn.co/spotify-charts-logos/music_charts_search_arrow_274x274.jpeg",
                        "width": 274
                    }
                ],
                "name": "Charts"
            },
            {
                "href": "https://api.spotify.com/v1/browse/categories/0JQ5DAqbMKFAH7OEQjCEex",
                "id": "0JQ5DAqbMKFAH7OEQjCEex",
                "icons": [
                    {
                        "height": 274,
                        "url": "https://t.scdn.co/media/categories/francophone_274x274.jpg",
                        "width": 274
                    }
                ],
                "name": "Francophone"
            },
            {
                "href": "https://api.spotify.com/v1/browse/categories/0JQ5DAqbMKFGnsSfvg90Wo",
                "id": "0JQ5DAqbMKFGnsSfvg90Wo",
                "icons": [
                    {
                        "height": 274,
                        "url": "https://t.scdn.co/images/c5495b9f0f694ffcb39c9217d4ed4375",
                        "width": 274
                    }
                ],
                "name": "GLOW"
            },
            {
                "href": "https://api.spotify.com/v1/browse/categories/0JQ5DAqbMKFDXXwE9BDJAr",
                "id": "0JQ5DAqbMKFDXXwE9BDJAr",
                "icons": [
                    {
                        "height": 274,
                        "url": "https://t.scdn.co/media/derived/rock_9ce79e0a4ef901bbd10494f5b855d3cc_0_0_274_274.jpg",
                        "width": 274
                    }
                ],
                "name": "Rock"
            },
            {
                "href": "https://api.spotify.com/v1/browse/categories/0JQ5DAqbMKFF9bY76LXmfI",
                "id": "0JQ5DAqbMKFF9bY76LXmfI",
                "icons": [
                    {
                        "height": 274,
                        "url": "https://t.scdn.co/images/cad629fb65a14de4beddb38510e27cb1",
                        "width": 274
                    }
                ],
                "name": "Frequency"
            },
            {
                "href": "https://api.spotify.com/v1/browse/categories/0JQ5DAtOnAEpjOgUKwXyxj",
                "id": "0JQ5DAtOnAEpjOgUKwXyxj",
                "icons": [
                    {
                        "height": 274,
                        "url": "https://t.scdn.co/images/728ed47fc1674feb95f7ac20236eb6d7.jpeg",
                        "width": 274
                    }
                ],
                "name": "Discover"
            },
            {
                "href": "https://api.spotify.com/v1/browse/categories/0JQ5DAqbMKFEZPnFQSFB1T",
                "id": "0JQ5DAqbMKFEZPnFQSFB1T",
                "icons": [
                    {
                        "height": 274,
                        "url": "https://t.scdn.co/media/derived/r-b-274x274_fd56efa72f4f63764b011b68121581d8_0_0_274_274.jpg",
                        "width": 274
                    }
                ],
                "name": "R&B"
            },
            {
                "href": "https://api.spotify.com/v1/browse/categories/0JQ5DAqbMKFHOzuVTgTizF",
                "id": "0JQ5DAqbMKFHOzuVTgTizF",
                "icons": [
                    {
                        "height": 274,
                        "url": "https://t.scdn.co/media/derived/edm-274x274_0ef612604200a9c14995432994455a6d_0_0_274_274.jpg",
                        "width": 274
                    }
                ],
                "name": "Dance/Electronic"
            },
            {
                "href": "https://api.spotify.com/v1/browse/categories/0JQ5DAqbMKFIVNxQgRNSg0",
                "id": "0JQ5DAqbMKFIVNxQgRNSg0",
                "icons": [
                    {
                        "height": 274,
                        "url": "https://t.scdn.co/images/04111a3b810243288d81a539ba03f8d0",
                        "width": 274
                    }
                ],
                "name": "Decades"
            },
            {
                "href": "https://api.spotify.com/v1/browse/categories/0JQ5DAqbMKFzHmL4tf05da",
                "id": "0JQ5DAqbMKFzHmL4tf05da",
                "icons": [
                    {
                        "height": 274,
                        "url": "https://t.scdn.co/media/original/mood-274x274_976986a31ac8c49794cbdc7246fd5ad7_274x274.jpg",
                        "width": 274
                    }
                ],
                "name": "Mood"
            },
            {
                "href": "https://api.spotify.com/v1/browse/categories/0JQ5DAqbMKFCWjUTdzaG0e",
                "id": "0JQ5DAqbMKFCWjUTdzaG0e",
                "icons": [
                    {
                        "height": 274,
                        "url": "https://t.scdn.co/images/fe06caf056474bc58862591cd60b57fc.jpeg",
                        "width": 274
                    }
                ],
                "name": "Indie"
            },
            {
                "href": "https://api.spotify.com/v1/browse/categories/0JQ5DAqbMKFAXlCG6QvYQ4",
                "id": "0JQ5DAqbMKFAXlCG6QvYQ4",
                "icons": [
                    {
                        "height": 274,
                        "url": "https://t.scdn.co/media/links/workout-274x274.png",
                        "width": 274
                    }
                ],
                "name": "Workout"
            },
            {
                "href": "https://api.spotify.com/v1/browse/categories/0JQ5DAqbMKFxXaXKP7zcDp",
                "id": "0JQ5DAqbMKFxXaXKP7zcDp",
                "icons": [
                    {
                        "height": 274,
                        "url": "https://t.scdn.co/media/derived/latin-274x274_befbbd1fbb8e045491576e317cb16cdf_0_0_274_274.jpg",
                        "width": 274
                    }
                ],
                "name": "Latin"
            },
            {
                "href": "https://api.spotify.com/v1/browse/categories/0JQ5DAqbMKFIxnofjQmnmn",
                "id": "0JQ5DAqbMKFIxnofjQmnmn",
                "icons": [
                    {
                        "height": 274,
                        "url": "https://t.scdn.co/images/27922fb7882e4d078c59b29cef4111b9",
                        "width": 274
                    }
                ],
                "name": "Disney"
            }
        ],
        "limit": 20,
        "next": "https://api.spotify.com/v1/browse/categories?offset=20&limit=20&locale=en-GB%2Cen-US%3Bq%3D0.9%2Cen%3Bq%3D0.8%2Cpt%3Bq%3D0.7",
        "offset": 0,
        "previous": null,
        "total": 81
    }
}